{
  "username": "PinkSquad",
  "avatar_url": "https://cdn.discordapp.com/attachments/748647123209420890/783017217297481749/749675153457414265.png",
  "content": "",
  "embeds": [
    {
      "color": 10027263,
      "timestamp": "",
      "author": {},
      "image": {
        "url": "https://media.discordapp.net/attachments/748276700143681687/748277253649072178/download_9.gif"
      },
      "thumbnail": {},
      "footer": {},
      "fields": []
    },
    {
      "title": "",
      "color": 10028543,
      "description": "<a:warn:794866603623841824> **У каждой Семьи/Клана есть**: <a:warn:794866603623841824>\n╔═════════════════════════╗\n║<a:r_:786934293799763988>Собственный **префикс** из трех букв [zxc/sup/old]\n╠✦<a:1_:781515360276185129><a:1_:781515360276185129><a:1_:781515360276185129><a:1_:781515360276185129><a:1_:781515360276185129><a:1_:781515360276185129><a:1_:781515360276185129>\n║<a:r_:786934293799763988>Собственные **правила** внутри семьи/клана\n╠✦<a:1_:781515360276185129><a:1_:781515360276185129><a:1_:781515360276185129><a:1_:781515360276185129><a:1_:781515360276185129><a:1_:781515360276185129><a:1_:781515360276185129>\n║<a:r_:786934293799763988>Собственные **чаты** (Голосовой/Текстовый)\n╠✦<a:1_:781515360276185129><a:1_:781515360276185129><a:1_:781515360276185129><a:1_:781515360276185129><a:1_:781515360276185129><a:1_:781515360276185129><a:1_:781515360276185129>\n║<a:r_:786934293799763988>Собственные \"**Глава**\" и \"**Заместитель Главы**\"\n╚═════════════════════════╝\n\n<a:warn:794866603623841824> **Чтобы создать Семью/Клан, требуется**: <a:warn:794866603623841824>\n╔═════════════════════════╗\n║<a:r_:786934293799763988>Придумать **Название** и **Префикс**\n╠✦<a:1_:781515360276185129><a:1_:781515360276185129><a:1_:781515360276185129><a:1_:781515360276185129><a:1_:781515360276185129><a:1_:781515360276185129><a:1_:781515360276185129>\n║<a:r_:786934293799763988>Подать **анкету** (доступно пользователям с ролью <@&741779926633414656> )\n╠✦<a:1_:781515360276185129><a:1_:781515360276185129><a:1_:781515360276185129><a:1_:781515360276185129><a:1_:781515360276185129><a:1_:781515360276185129><a:1_:781515360276185129>\n║<a:r_:786934293799763988>Набрать 5 единомышленников за неделю\n╠✦<a:1_:781515360276185129><a:1_:781515360276185129><a:1_:781515360276185129><a:1_:781515360276185129><a:1_:781515360276185129><a:1_:781515360276185129><a:1_:781515360276185129>\n║<a:r_:786934293799763988>Расписать правила и назначить **Главу** и **Заместителя**\n╚═════════════════════════╝",
      "timestamp": "",
      "author": {},
      "image": {
        "url": "https://images-ext-1.discordapp.net/external/8XxpCyxeUPOdgCOIZuWlYzsdA-c8ki1SszLiO6n8nLE/https/images-ext-2.discordapp.net/external/7DeytwE35SQOKeusufHE0PbIXl9HPVthwv2mNiqPIug/https/cdn.probot.io/3MPjP6UgPz.gif"
      },
      "thumbnail": {},
      "footer": {},
      "fields": []
    }
  ]
}
